<svg xmlns="http://www.w3.org/2000/svg" xmlns:xlink="http://www.w3.org/1999/xlink" preserveAspectRatio="xMidYMid" width="61" height="60" viewBox="0 0 61 60">
  <defs>
    <style>
      .cls-1, .cls-2 {
        stroke: #fff;
        stroke-width: 2px;
      }

      .cls-1 {
        fill: none;
      }

      .cls-2 {
        fill: #ed2c2d;
        fill-rule: evenodd;
      }
    </style>
  </defs>
  <circle cx="30.016" cy="30.016" r="30.016" class="cls-1"/>
  <circle cx="30" cy="30" r="17" class="cls-1"/>
  <path d="M42.728,37.071 L54.749,49.092 L49.092,54.749 L37.071,42.728 L42.728,37.071 Z" class="cls-2"/>
  <path d="M10.908,5.251 L22.929,17.272 L17.272,22.929 L5.251,10.908 L10.908,5.251 Z" class="cls-2"/>
  <path d="M17.272,37.071 L22.929,42.728 L10.908,54.749 L5.251,49.092 L17.272,37.071 Z" class="cls-2"/>
  <path d="M49.092,5.251 L54.749,10.908 L42.728,22.929 L37.071,17.272 L49.092,5.251 Z" class="cls-2"/>
</svg>
